{
  "count": 908,
  "page": 1,
  "previous_page": null,
  "next_page": "http://api.seravo.dev/public/promotions/?limit=3&page=2",
  "results": [
    {
      "name": "Kauppinen",
      "promotion_code": "zFsIoQXPZEhnGqQ",
      "promotion_type": "referrer",
      "wp_admin_username": "johanneshyttinen",
      "discount": "0.0",
      "trial_months": 1,
      "account_manager": "simolaine@example.net",
      "deploy_location": null,
      "template": null,
      "free_migration": true,
      "staging_shadow": true,
      "whitelabel": "jackson.com",
      "plans": [],
      "reseller_id": null,
      "created_at": "2024-09-18T08:34:40",
      "updated_at": null,
      "id": "0d83c053-bf27-44c2-83ac-7f7bbe27e61b",
      "reseller": null
    },
    {
      "name": "Vartiainen Oy",
      "promotion_code": "Mqf19LoTsXvwdrE",
      "promotion_type": "referrer",
      "wp_admin_username": "esalminen",
      "discount": "0.0",
      "trial_months": 7,
      "account_manager": "sbjorklund@example.net",
      "deploy_location": null,
      "template": null,
      "free_migration": false,
      "staging_shadow": true,
      "whitelabel": "vaananen.fi",
      "plans": [],
      "reseller_id": null,
      "created_at": "2024-09-18T08:34:40",
      "updated_at": null,
      "id": "145ba545-5063-4103-8fd4-e9df2c924dc2",
      "reseller": null
    },
    {
      "name": "Larsson AB",
      "promotion_code": "VWdFrBUCmA2lImo",
      "promotion_type": "referrer",
      "wp_admin_username": "malinenolli",
      "discount": "0.0",
      "trial_months": 3,
      "account_manager": "vpeck@example.org",
      "deploy_location": null,
      "template": null,
      "free_migration": true,
      "staging_shadow": true,
      "whitelabel": "salonen.fi",
      "plans": [],
      "reseller_id": null,
      "created_at": "2024-09-18T08:34:40",
      "updated_at": null,
      "id": "2b21a88f-ac47-48e5-9ec4-6bef7fbf1bc8",
      "reseller": null
    }
  ]
}
