{
  "count": 908,
  "page": 1,
  "previous_page": null,
  "next_page": "http://api.seravo.dev/public/products/?limit=2&page=2",
  "results": [
    {
      "name": "Domain (black)",
      "code": "WP_DOMAIN_BLACK_13012026",
      "type": "PURCHASE",
      "unit": "NO_UNIT",
      "price": "52.00",
      "locale": {
        "fi": "Verkkotunnus (black)",
        "sv": "Domän (black)",
        "en": "Domain (black)"
      },
      "product_type": "domain",
      "group_id": "0fa38dae-dd2d-4a9d-a336-ac65ad4b762a",
      "created_at": "2026-01-13T13:32:34",
      "updated_at": null,
      "id": "00049ff1-8c98-40a6-b350-add94b235869",
      "deleted_at": null,
      "metadata": null
    },
    {
      "name": "Domain (xn--4dbrk0ce)",
      "code": "WP_DOMAIN_XN--4DBRK0CE_13012026",
      "type": "PURCHASE",
      "unit": "NO_UNIT",
      "price": "90.00",
      "locale": {
        "fi": "Verkkotunnus (ישראל)",
        "sv": "Domän (ישראל)",
        "en": "Domain (ישראל)"
      },
      "product_type": "domain",
      "group_id": "0fa38dae-dd2d-4a9d-a336-ac65ad4b762a",
      "created_at": "2026-01-13T13:40:40",
      "updated_at": null,
      "id": "0064b9d3-9db0-45de-9d60-1886a966ceb1",
      "deleted_at": null,
      "metadata": null
    }
  ]
}
